Data Manipulation in R | PO91Q: Fundamentals in Quantitative Research Methods – Seminar Companion
…
# or slightly shorter 

eu_order <- EU_subset[order(with(EU_subset, access,pop18)),]

Grouping Data

Looking at the last example, a question that might spring up is in which accession wave the joining countries brought the largest population increase on average to the EU. We can calculate summary statistics for a particular group by, well, grouping them. The first step is to group data into rows with the same value:

eu_access <- group_by(EU_subset, access)

By the way: whenever you have grouped anything, and finished analysing data in this grouped version it is essential that you ungroup the data afterwards, so that you don’t unintentionally keep using the groups:

ungroup(EU_subset)
# A tibble: 28 × 3
   country     pop18 access
   <fct>       <dbl>  <dbl>
 1 Belgium  11413058   1951
 2 Bulgaria  7050034   2007
 3 Czechia  10610055   2004
 4 Denmark   5781190   1973
 5 Germany  82850000   1951
 6 Estonia   1319133   2004
 7 Ireland   4838259   1973
 8 Greece   10738868   1981
 9 Spain    46659302   1986
10 France   67221943   1951
# ℹ 18 more rows
…
